1.2951,6.0572,2971,679,22780
1.3175,7.0808,2971,83,22689
1.189,9.0774,2971,1270,22762
1.3957,4.0404,2971,538,22523
1.2414,6.0404,2971,772,22799
1.4156,7.0572,2971,869,22751
1.2564,10.084,2971,1989,22849
1.4733,10.114,2971,893,22736
1.2582,9.0909,2971,1258,22352
1.2732,7.0741,2971,1862,22402
1.4108,9.1077,2971,2687,22710
1.2275,5.0404,2971,2847,22188
1.2762,10.088,2971,967,22502
1.1162,8.0774,2971,1258,22721
1.2949,8.0606,2971,2440,22163
1.5165,8.0572,2971,624,22767
1.1474,7.064,2971,2128,22324
1.3565,7.064,2971,2535,22439
1.1402,7.0741,2971,610,22835
1.2501,9.064,2971,790,22768
