0.05917,0,1278,1278,5436
0.13655,0,77,77,5512.5
0.051639,0,137,137,5217.5
0.11137,0,711,711,5354.9
0.16955,0,754,754,5327.4
0.13359,0,990,990,5424.6
0.027631,1.0133,1501,228,5429
0.12919,0,805,805,5477.5
0.2077,0,506,506,5444.2
0.020666,0,705,705,5451.2
0.12935,1.0133,1501,23,5250.5
0.12828,0,160,160,5626.5
0.08894,0,49,49,5423.6
0.10526,0,300,300,5338.2
0.11702,0,1000,1000,5428.5
0.20509,0,72,72,5373.3
0.091157,0,742,742,5228.1
0.085675,0,1063,1063,5320.3
0.035917,0,1501,1501,5424.3
0.22097,1.0133,1501,320,5369.4
