    2.3562
    2.3876
    2.4190
    2.4504
    2.4819
    2.5133
    2.5447
    2.5761
    2.6075
    2.6389
    2.6704
    2.7018
    2.7332
    2.7646
    2.7960
    2.8274
    2.8588
    2.8903
    2.9217
    2.9531
    2.9845
    3.0159
    3.0473
    3.0788
    3.1102
    3.1416
    5.4978
    5.5292
    5.5606
    5.5920
    5.6235
    5.6549
    5.6863
    5.7177
    5.7491
    5.7805
    5.8119
    5.8434
    5.8748
    5.9062
    5.9376
    5.9690
    6.0004
    6.0319
    6.0633
    6.0947
    6.1261
    6.1575
    6.1889
    6.2204
    6.2518
    6.2832