6.0733e+09,91,100
5.935e+09,71,100
5.8508e+09,40,100
6.1282e+09,36,100
6.1502e+09,47,100
5.9394e+09,100,100
6.1723e+09,93,100
5.866e+09,71,100
5.866e+09,93,100
5.866e+09,64,100
5.9338e+09,24,100
7.094e+09,60,100
5.866e+09,18,100
4.3549e+09,61,100
5.0635e+09,81,100
5.4404e+09,68,100
5.866e+09,19,100
6.7635e+09,77,100
5.8834e+09,67,100
0,0,0
0,0,0
0,0,0
0,0,0
0,0,0
0,0,0
0,0,0
0,0,0
0,0,0
0,0,0
0,0,0
