0,0
0.28103,0.65619
0.83608,1.4972
1.455,1.997
1.8648,2.3042
2.1233,2.474
2.54,2.5227
2.9221,2.7486
3.0184,3.1155
3.1497,3.6834
2.58,2.9262
1.8012,2.6855
1.2109,2.4546
1.1003,2.4426
0.4596,2.3101
0.38758,2.1007
0.021738,1.8865
-0.26557,0.98075
-1.007,0.70298
-1.074,0.60588
0,0
