0.203125
0.140625
0.15625
0.515625
0.078125
0.0625
0.046875
0.5625
0.1875
0.109375
0.234375
0.75
0.671875
0.71875
0.453125
0.953125
0.078125
0.09375
0.09375
0.796875
0.046875
0.09375
0.265625
0.953125
0.125
0.203125
0.203125
0.875
0.484375
0.734375
1.140625
2.015625
0.296875
0.203125
0.28125
1.171875
0.1875
0.265625
0.421875
1.640625
0.296875
0.40625
0.765625
1.78125
1.484375
1.46875
1.5625
3.15625

